{
  "apps": [{
	"serverURL": "http://parsewithrepairmaster.herokuapp.com/parse",
      "appId": "Lamxxxl123",
      "masterKey": "Lamxxxl123",
      "appName": "parsewithrepairmaster"
 } ],
"users": [
    {
      "user":"ken",
      "pass":"ken"
    },
    {
      "user":"tim",
      "pass":"tim"
    }
  ]
}
